Termination event 0 detected at time 0.4367
Objective function: time [0.41,0.4367], val 1.6314
Termination event 0 detected at time 0.4367
Vec Object: 1 MPI processes
  type: seq
0.0641863
0.0472921
0.369543
0.177074
Termination event 0 detected at time 0.4367
Termination event 0 detected at time 0.4367
Termination event 0 detected at time 0.4367
Termination event 0 detected at time 0.4367
Termination event 0 detected at time 0.4367
Termination event 0 detected at time 0.4367
Termination event 0 detected at time 0.4367
Termination event 0 detected at time 0.4367
-------------------------- Taylor test results ---------------------------
		Gradient				Hessian
--------------------------------------------------------------------------
0.00117460	0.00000 	0	9.62990e-05	0.00000 	0
0.000281338	2.06179 	2	1.17629e-05	3.03328 	3
6.88083e-05	2.03165 	2	1.41446e-06	3.05591 	3
1.70082e-05	2.01635 	2	1.59773e-07	3.14616 	3
